-- Merging decision tree log ---
manifest
ADDED from C:\Users\ibaparece\AndroidStudioProjects\flutter-webrtc-demo\android\app\src\main\AndroidManifest.xml:1:1-48:12
INJECTED from C:\Users\ibaparece\AndroidStudioProjects\flutter-webrtc-demo\android\app\src\main\AndroidManifest.xml:1:1-48:12
INJECTED from C:\Users\ibaparece\AndroidStudioProjects\flutter-webrtc-demo\android\app\src\main\AndroidManifest.xml:1:1-48:12
INJECTED from C:\Users\ibaparece\AndroidStudioProjects\flutter-webrtc-demo\android\app\src\main\AndroidManifest.xml:1:1-48:12
MERGED from [:shared_preferences] C:\Users\ibaparece\AndroidStudioProjects\flutter-webrtc-demo\build\shared_preferences\intermediates\manifests\full\debug\AndroidManifest.xml:2:1-7:12
MERGED from [:path_provider] C:\Users\ibaparece\AndroidStudioProjects\flutter-webrtc-demo\build\path_provider\intermediates\manifests\full\debug\AndroidManifest.xml:2:1-7:12
MERGED from [:flutter_webrtc] C:\Users\ibaparece\AndroidStudioProjects\flutter-webrtc-demo\build\flutter_webrtc\intermediates\manifests\full\debug\AndroidManifest.xml:2:1-7:12
MERGED from [androidx.fragment:fragment:1.1.0] C:\Users\ibaparece\.gradle\caches\transforms-2\files-2.1\5ec067ecc8ef9b58f9dbce2db1051d69\AndroidManifest.xml:17:1-24:12
MERGED from [androidx.activity:activity:1.0.0] C:\Users\ibaparece\.gradle\caches\transforms-2\files-2.1\93a71d801122db05ca93cf17f5814498\AndroidManifest.xml:17:1-24:12
MERGED from [androidx.viewpager:viewpager:1.0.0] C:\Users\ibaparece\.gradle\caches\transforms-2\files-2.1\c3ca3348a9250ec86d398373e9482999\AndroidManifest.xml:17:1-22:12
MERGED from [androidx.loader:loader:1.0.0] C:\Users\ibaparece\.gradle\caches\transforms-2\files-2.1\6c38c1a48c0229b1a3ff8f5784de2528\AndroidManifest.xml:17:1-22:12
MERGED from [androidx.customview:customview:1.0.0] C:\Users\ibaparece\.gradle\caches\transforms-2\files-2.1\8da1a75829a8ebccf01f281b5b427800\AndroidManifest.xml:17:1-22:12
MERGED from [androidx.core:core:1.1.0] C:\Users\ibaparece\.gradle\caches\transforms-2\files-2.1\6aae6db9d3c70c583b7bf050b71d8460\AndroidManifest.xml:17:1-26:12
MERGED from [androidx.lifecycle:lifecycle-runtime:2.2.0] C:\Users\ibaparece\.gradle\caches\transforms-2\files-2.1\433ddcf8eaca6ae0d64041f454097822\AndroidManifest.xml:17:1-24:12
MERGED from [androidx.savedstate:savedstate:1.0.0] C:\Users\ibaparece\.gradle\caches\transforms-2\files-2.1\d53ad7a3389f33162c39115d272cc29a\AndroidManifest.xml:17:1-24:12
MERGED from [androidx.lifecycle:lifecycle-livedata:2.0.0] C:\Users\ibaparece\.gradle\caches\transforms-2\files-2.1\2a21d91d8133b16c85d6b4e250e0165e\AndroidManifest.xml:17:1-22:12
MERGED from [androidx.lifecycle:lifecycle-livedata-core:2.0.0] C:\Users\ibaparece\.gradle\caches\transforms-2\files-2.1\8f3810e11d26f98b165369446beb2fc9\AndroidManifest.xml:17:1-22:12
MERGED from [androidx.arch.core:core-runtime:2.0.0] C:\Users\ibaparece\.gradle\caches\transforms-2\files-2.1\4f17b8a5d8c268f5b964b1c6ec7003e9\AndroidManifest.xml:17:1-22:12
MERGED from [androidx.versionedparcelable:versionedparcelable:1.1.0] C:\Users\ibaparece\.gradle\caches\transforms-2\files-2.1\6ee861999edcc18fd2d3ef55964eddf8\AndroidManifest.xml:17:1-27:12
MERGED from [androidx.lifecycle:lifecycle-viewmodel:2.1.0] C:\Users\ibaparece\.gradle\caches\transforms-2\files-2.1\7a35cee644ad912877173d62bb6473bd\AndroidManifest.xml:17:1-22:12
MERGED from [org.webrtc:google-webrtc:1.0.28262] C:\Users\ibaparece\.gradle\caches\transforms-2\files-2.1\768724cd44efc2547fe7b0bf985980b6\AndroidManifest.xml:11:1-14:12
INJECTED from C:\Users\ibaparece\AndroidStudioProjects\flutter-webrtc-demo\android\app\src\main\AndroidManifest.xml:1:1-48:12
INJECTED from C:\Users\ibaparece\AndroidStudioProjects\flutter-webrtc-demo\android\app\src\main\AndroidManifest.xml:1:1-48:12
INJECTED from C:\Users\ibaparece\AndroidStudioProjects\flutter-webrtc-demo\android\app\src\main\AndroidManifest.xml:1:1-48:12
	package
		ADDED from C:\Users\ibaparece\AndroidStudioProjects\flutter-webrtc-demo\android\app\src\main\AndroidManifest.xml:2:5-48
		INJECTED from C:\Users\ibaparece\AndroidStudioProjects\flutter-webrtc-demo\android\app\src\main\AndroidManifest.xml
		INJECTED from C:\Users\ibaparece\AndroidStudioProjects\flutter-webrtc-demo\android\app\src\main\AndroidManifest.xml
	android:versionName
		INJECTED from C:\Users\ibaparece\AndroidStudioProjects\flutter-webrtc-demo\android\app\src\main\AndroidManifest.xml
		ADDED from C:\Users\ibaparece\AndroidStudioProjects\flutter-webrtc-demo\android\app\src\main\AndroidManifest.xml:1:1-48:12
		INJECTED from C:\Users\ibaparece\AndroidStudioProjects\flutter-webrtc-demo\android\app\src\main\AndroidManifest.xml
	android:versionCode
		INJECTED from C:\Users\ibaparece\AndroidStudioProjects\flutter-webrtc-demo\android\app\src\main\AndroidManifest.xml
		ADDED from C:\Users\ibaparece\AndroidStudioProjects\flutter-webrtc-demo\android\app\src\main\AndroidManifest.xml:1:1-48:12
		INJECTED from C:\Users\ibaparece\AndroidStudioProjects\flutter-webrtc-demo\android\app\src\main\AndroidManifest.xml
	xmlns:android
		ADDED from C:\Users\ibaparece\AndroidStudioProjects\flutter-webrtc-demo\android\app\src\main\AndroidManifest.xml:1:11-69
uses-permission#android.permission.INTERNET
ADDED from C:\Users\ibaparece\AndroidStudioProjects\flutter-webrtc-demo\android\app\src\main\AndroidManifest.xml:8:5-66
	android:name
		ADDED from C:\Users\ibaparece\AndroidStudioProjects\flutter-webrtc-demo\android\app\src\main\AndroidManifest.xml:8:22-64
uses-feature#android.hardware.camera
ADDED from C:\Users\ibaparece\AndroidStudioProjects\flutter-webrtc-demo\android\app\src\main\AndroidManifest.xml:9:5-60
	android:name
		ADDED from C:\Users\ibaparece\AndroidStudioProjects\flutter-webrtc-demo\android\app\src\main\AndroidManifest.xml:9:19-57
uses-feature#android.hardware.camera.autofocus
ADDED from C:\Users\ibaparece\AndroidStudioProjects\flutter-webrtc-demo\android\app\src\main\AndroidManifest.xml:10:5-70
	android:name
		ADDED from C:\Users\ibaparece\AndroidStudioProjects\flutter-webrtc-demo\android\app\src\main\AndroidManifest.xml:10:19-67
uses-permission#android.permission.CAMERA
ADDED from C:\Users\ibaparece\AndroidStudioProjects\flutter-webrtc-demo\android\app\src\main\AndroidManifest.xml:11:5-65
	android:name
		ADDED from C:\Users\ibaparece\AndroidStudioProjects\flutter-webrtc-demo\android\app\src\main\AndroidManifest.xml:11:22-62
uses-permission#android.permission.RECORD_AUDIO
ADDED from C:\Users\ibaparece\AndroidStudioProjects\flutter-webrtc-demo\android\app\src\main\AndroidManifest.xml:12:5-71
	android:name
		ADDED from C:\Users\ibaparece\AndroidStudioProjects\flutter-webrtc-demo\android\app\src\main\AndroidManifest.xml:12:22-68
uses-permission#android.permission.WAKE_LOCK
ADDED from C:\Users\ibaparece\AndroidStudioProjects\flutter-webrtc-demo\android\app\src\main\AndroidManifest.xml:13:5-68
	android:name
		ADDED from C:\Users\ibaparece\AndroidStudioProjects\flutter-webrtc-demo\android\app\src\main\AndroidManifest.xml:13:22-65
uses-permission#android.permission.ACCESS_NETWORK_STATE
ADDED from C:\Users\ibaparece\AndroidStudioProjects\flutter-webrtc-demo\android\app\src\main\AndroidManifest.xml:14:5-79
	android:name
		ADDED from C:\Users\ibaparece\AndroidStudioProjects\flutter-webrtc-demo\android\app\src\main\AndroidManifest.xml:14:22-76
uses-permission#android.permission.BLUETOOTH
ADDED from C:\Users\ibaparece\AndroidStudioProjects\flutter-webrtc-demo\android\app\src\main\AndroidManifest.xml:15:5-68
	android:name
		ADDED from C:\Users\ibaparece\AndroidStudioProjects\flutter-webrtc-demo\android\app\src\main\AndroidManifest.xml:15:22-65
uses-permission#android.permission.CHANGE_NETWORK_STATE
ADDED from C:\Users\ibaparece\AndroidStudioProjects\flutter-webrtc-demo\android\app\src\main\AndroidManifest.xml:16:5-79
	android:name
		ADDED from C:\Users\ibaparece\AndroidStudioProjects\flutter-webrtc-demo\android\app\src\main\AndroidManifest.xml:16:22-76
uses-permission#android.permission.MODIFY_AUDIO_SETTINGS
ADDED from C:\Users\ibaparece\AndroidStudioProjects\flutter-webrtc-demo\android\app\src\main\AndroidManifest.xml:17:5-80
	android:name
		ADDED from C:\Users\ibaparece\AndroidStudioProjects\flutter-webrtc-demo\android\app\src\main\AndroidManifest.xml:17:22-77
application
ADDED from C:\Users\ibaparece\AndroidStudioProjects\flutter-webrtc-demo\android\app\src\main\AndroidManifest.xml:24:5-47:19
MERGED from [androidx.core:core:1.1.0] C:\Users\ibaparece\.gradle\caches\transforms-2\files-2.1\6aae6db9d3c70c583b7bf050b71d8460\AndroidManifest.xml:24:5-89
MERGED from [androidx.core:core:1.1.0] C:\Users\ibaparece\.gradle\caches\transforms-2\files-2.1\6aae6db9d3c70c583b7bf050b71d8460\AndroidManifest.xml:24:5-89
MERGED from [androidx.versionedparcelable:versionedparcelable:1.1.0] C:\Users\ibaparece\.gradle\caches\transforms-2\files-2.1\6ee861999edcc18fd2d3ef55964eddf8\AndroidManifest.xml:24:5-25:19
MERGED from [androidx.versionedparcelable:versionedparcelable:1.1.0] C:\Users\ibaparece\.gradle\caches\transforms-2\files-2.1\6ee861999edcc18fd2d3ef55964eddf8\AndroidManifest.xml:24:5-25:19
	android:appComponentFactory
		ADDED from [androidx.core:core:1.1.0] C:\Users\ibaparece\.gradle\caches\transforms-2\files-2.1\6aae6db9d3c70c583b7bf050b71d8460\AndroidManifest.xml:24:18-86
	android:label
		ADDED from C:\Users\ibaparece\AndroidStudioProjects\flutter-webrtc-demo\android\app\src\main\AndroidManifest.xml:26:9-44
	android:icon
		ADDED from C:\Users\ibaparece\AndroidStudioProjects\flutter-webrtc-demo\android\app\src\main\AndroidManifest.xml:27:9-43
	android:name
		ADDED from C:\Users\ibaparece\AndroidStudioProjects\flutter-webrtc-demo\android\app\src\main\AndroidManifest.xml:25:9-57
activity#com.cloudwebrtc.flutterwebrtcdemo.MainActivity
ADDED from C:\Users\ibaparece\AndroidStudioProjects\flutter-webrtc-demo\android\app\src\main\AndroidManifest.xml:28:9-46:20
	android:launchMode
		ADDED from C:\Users\ibaparece\AndroidStudioProjects\flutter-webrtc-demo\android\app\src\main\AndroidManifest.xml:30:13-43
	android:hardwareAccelerated
		ADDED from C:\Users\ibaparece\AndroidStudioProjects\flutter-webrtc-demo\android\app\src\main\AndroidManifest.xml:33:13-47
	android:windowSoftInputMode
		ADDED from C:\Users\ibaparece\AndroidStudioProjects\flutter-webrtc-demo\android\app\src\main\AndroidManifest.xml:34:13-55
	android:configChanges
		ADDED from C:\Users\ibaparece\AndroidStudioProjects\flutter-webrtc-demo\android\app\src\main\AndroidManifest.xml:32:13-137
	android:theme
		ADDED from C:\Users\ibaparece\AndroidStudioProjects\flutter-webrtc-demo\android\app\src\main\AndroidManifest.xml:31:13-47
	android:name
		ADDED from C:\Users\ibaparece\AndroidStudioProjects\flutter-webrtc-demo\android\app\src\main\AndroidManifest.xml:29:13-41
meta-data#io.flutter.app.android.SplashScreenUntilFirstFrame
ADDED from C:\Users\ibaparece\AndroidStudioProjects\flutter-webrtc-demo\android\app\src\main\AndroidManifest.xml:39:13-41:40
	android:value
		ADDED from C:\Users\ibaparece\AndroidStudioProjects\flutter-webrtc-demo\android\app\src\main\AndroidManifest.xml:41:17-37
	android:name
		ADDED from C:\Users\ibaparece\AndroidStudioProjects\flutter-webrtc-demo\android\app\src\main\AndroidManifest.xml:40:17-82
intent-filter#action:name:android.intent.action.MAIN+category:name:android.intent.category.LAUNCHER
ADDED from C:\Users\ibaparece\AndroidStudioProjects\flutter-webrtc-demo\android\app\src\main\AndroidManifest.xml:42:13-45:29
action#android.intent.action.MAIN
ADDED from C:\Users\ibaparece\AndroidStudioProjects\flutter-webrtc-demo\android\app\src\main\AndroidManifest.xml:43:17-68
	android:name
		ADDED from C:\Users\ibaparece\AndroidStudioProjects\flutter-webrtc-demo\android\app\src\main\AndroidManifest.xml:43:25-66
category#android.intent.category.LAUNCHER
ADDED from C:\Users\ibaparece\AndroidStudioProjects\flutter-webrtc-demo\android\app\src\main\AndroidManifest.xml:44:17-76
	android:name
		ADDED from C:\Users\ibaparece\AndroidStudioProjects\flutter-webrtc-demo\android\app\src\main\AndroidManifest.xml:44:27-74
uses-sdk
INJECTED from C:\Users\ibaparece\AndroidStudioProjects\flutter-webrtc-demo\android\app\src\main\AndroidManifest.xml reason: use-sdk injection requested
INJECTED from C:\Users\ibaparece\AndroidStudioProjects\flutter-webrtc-demo\android\app\src\main\AndroidManifest.xml
INJECTED from C:\Users\ibaparece\AndroidStudioProjects\flutter-webrtc-demo\android\app\src\main\AndroidManifest.xml
MERGED from [:shared_preferences] C:\Users\ibaparece\AndroidStudioProjects\flutter-webrtc-demo\build\shared_preferences\intermediates\manifests\full\debug\AndroidManifest.xml:5:5-44
MERGED from [:shared_preferences] C:\Users\ibaparece\AndroidStudioProjects\flutter-webrtc-demo\build\shared_preferences\intermediates\manifests\full\debug\AndroidManifest.xml:5:5-44
MERGED from [:path_provider] C:\Users\ibaparece\AndroidStudioProjects\flutter-webrtc-demo\build\path_provider\intermediates\manifests\full\debug\AndroidManifest.xml:5:5-44
MERGED from [:path_provider] C:\Users\ibaparece\AndroidStudioProjects\flutter-webrtc-demo\build\path_provider\intermediates\manifests\full\debug\AndroidManifest.xml:5:5-44
MERGED from [:flutter_webrtc] C:\Users\ibaparece\AndroidStudioProjects\flutter-webrtc-demo\build\flutter_webrtc\intermediates\manifests\full\debug\AndroidManifest.xml:5:5-44
MERGED from [:flutter_webrtc] C:\Users\ibaparece\AndroidStudioProjects\flutter-webrtc-demo\build\flutter_webrtc\intermediates\manifests\full\debug\AndroidManifest.xml:5:5-44
MERGED from [androidx.fragment:fragment:1.1.0] C:\Users\ibaparece\.gradle\caches\transforms-2\files-2.1\5ec067ecc8ef9b58f9dbce2db1051d69\AndroidManifest.xml:20:5-22:41
MERGED from [androidx.fragment:fragment:1.1.0] C:\Users\ibaparece\.gradle\caches\transforms-2\files-2.1\5ec067ecc8ef9b58f9dbce2db1051d69\AndroidManifest.xml:20:5-22:41
MERGED from [androidx.activity:activity:1.0.0] C:\Users\ibaparece\.gradle\caches\transforms-2\files-2.1\93a71d801122db05ca93cf17f5814498\AndroidManifest.xml:20:5-22:41
MERGED from [androidx.activity:activity:1.0.0] C:\Users\ibaparece\.gradle\caches\transforms-2\files-2.1\93a71d801122db05ca93cf17f5814498\AndroidManifest.xml:20:5-22:41
MERGED from [androidx.viewpager:viewpager:1.0.0] C:\Users\ibaparece\.gradle\caches\transforms-2\files-2.1\c3ca3348a9250ec86d398373e9482999\AndroidManifest.xml:20:5-44
MERGED from [androidx.viewpager:viewpager:1.0.0] C:\Users\ibaparece\.gradle\caches\transforms-2\files-2.1\c3ca3348a9250ec86d398373e9482999\AndroidManifest.xml:20:5-44
MERGED from [androidx.loader:loader:1.0.0] C:\Users\ibaparece\.gradle\caches\transforms-2\files-2.1\6c38c1a48c0229b1a3ff8f5784de2528\AndroidManifest.xml:20:5-44
MERGED from [androidx.loader:loader:1.0.0] C:\Users\ibaparece\.gradle\caches\transforms-2\files-2.1\6c38c1a48c0229b1a3ff8f5784de2528\AndroidManifest.xml:20:5-44
MERGED from [androidx.customview:customview:1.0.0] C:\Users\ibaparece\.gradle\caches\transforms-2\files-2.1\8da1a75829a8ebccf01f281b5b427800\AndroidManifest.xml:20:5-44
MERGED from [androidx.customview:customview:1.0.0] C:\Users\ibaparece\.gradle\caches\transforms-2\files-2.1\8da1a75829a8ebccf01f281b5b427800\AndroidManifest.xml:20:5-44
MERGED from [androidx.core:core:1.1.0] C:\Users\ibaparece\.gradle\caches\transforms-2\files-2.1\6aae6db9d3c70c583b7bf050b71d8460\AndroidManifest.xml:20:5-22:41
MERGED from [androidx.core:core:1.1.0] C:\Users\ibaparece\.gradle\caches\transforms-2\files-2.1\6aae6db9d3c70c583b7bf050b71d8460\AndroidManifest.xml:20:5-22:41
MERGED from [androidx.lifecycle:lifecycle-runtime:2.2.0] C:\Users\ibaparece\.gradle\caches\transforms-2\files-2.1\433ddcf8eaca6ae0d64041f454097822\AndroidManifest.xml:20:5-22:41
MERGED from [androidx.lifecycle:lifecycle-runtime:2.2.0] C:\Users\ibaparece\.gradle\caches\transforms-2\files-2.1\433ddcf8eaca6ae0d64041f454097822\AndroidManifest.xml:20:5-22:41
MERGED from [androidx.savedstate:savedstate:1.0.0] C:\Users\ibaparece\.gradle\caches\transforms-2\files-2.1\d53ad7a3389f33162c39115d272cc29a\AndroidManifest.xml:20:5-22:41
MERGED from [androidx.savedstate:savedstate:1.0.0] C:\Users\ibaparece\.gradle\caches\transforms-2\files-2.1\d53ad7a3389f33162c39115d272cc29a\AndroidManifest.xml:20:5-22:41
MERGED from [androidx.lifecycle:lifecycle-livedata:2.0.0] C:\Users\ibaparece\.gradle\caches\transforms-2\files-2.1\2a21d91d8133b16c85d6b4e250e0165e\AndroidManifest.xml:20:5-44
MERGED from [androidx.lifecycle:lifecycle-livedata:2.0.0] C:\Users\ibaparece\.gradle\caches\transforms-2\files-2.1\2a21d91d8133b16c85d6b4e250e0165e\AndroidManifest.xml:20:5-44
MERGED from [androidx.lifecycle:lifecycle-livedata-core:2.0.0] C:\Users\ibaparece\.gradle\caches\transforms-2\files-2.1\8f3810e11d26f98b165369446beb2fc9\AndroidManifest.xml:20:5-44
MERGED from [androidx.lifecycle:lifecycle-livedata-core:2.0.0] C:\Users\ibaparece\.gradle\caches\transforms-2\files-2.1\8f3810e11d26f98b165369446beb2fc9\AndroidManifest.xml:20:5-44
MERGED from [androidx.arch.core:core-runtime:2.0.0] C:\Users\ibaparece\.gradle\caches\transforms-2\files-2.1\4f17b8a5d8c268f5b964b1c6ec7003e9\AndroidManifest.xml:20:5-44
MERGED from [androidx.arch.core:core-runtime:2.0.0] C:\Users\ibaparece\.gradle\caches\transforms-2\files-2.1\4f17b8a5d8c268f5b964b1c6ec7003e9\AndroidManifest.xml:20:5-44
MERGED from [androidx.versionedparcelable:versionedparcelable:1.1.0] C:\Users\ibaparece\.gradle\caches\transforms-2\files-2.1\6ee861999edcc18fd2d3ef55964eddf8\AndroidManifest.xml:20:5-22:41
MERGED from [androidx.versionedparcelable:versionedparcelable:1.1.0] C:\Users\ibaparece\.gradle\caches\transforms-2\files-2.1\6ee861999edcc18fd2d3ef55964eddf8\AndroidManifest.xml:20:5-22:41
MERGED from [androidx.lifecycle:lifecycle-viewmodel:2.1.0] C:\Users\ibaparece\.gradle\caches\transforms-2\files-2.1\7a35cee644ad912877173d62bb6473bd\AndroidManifest.xml:20:5-44
MERGED from [androidx.lifecycle:lifecycle-viewmodel:2.1.0] C:\Users\ibaparece\.gradle\caches\transforms-2\files-2.1\7a35cee644ad912877173d62bb6473bd\AndroidManifest.xml:20:5-44
MERGED from [org.webrtc:google-webrtc:1.0.28262] C:\Users\ibaparece\.gradle\caches\transforms-2\files-2.1\768724cd44efc2547fe7b0bf985980b6\AndroidManifest.xml:13:3-72
MERGED from [org.webrtc:google-webrtc:1.0.28262] C:\Users\ibaparece\.gradle\caches\transforms-2\files-2.1\768724cd44efc2547fe7b0bf985980b6\AndroidManifest.xml:13:3-72
INJECTED from C:\Users\ibaparece\AndroidStudioProjects\flutter-webrtc-demo\android\app\src\main\AndroidManifest.xml
INJECTED from C:\Users\ibaparece\AndroidStudioProjects\flutter-webrtc-demo\android\app\src\main\AndroidManifest.xml
	android:targetSdkVersion
		INJECTED from C:\Users\ibaparece\AndroidStudioProjects\flutter-webrtc-demo\android\app\src\main\AndroidManifest.xml
		ADDED from C:\Users\ibaparece\AndroidStudioProjects\flutter-webrtc-demo\android\app\src\main\AndroidManifest.xml
		INJECTED from C:\Users\ibaparece\AndroidStudioProjects\flutter-webrtc-demo\android\app\src\main\AndroidManifest.xml
	android:minSdkVersion
		INJECTED from C:\Users\ibaparece\AndroidStudioProjects\flutter-webrtc-demo\android\app\src\main\AndroidManifest.xml
		ADDED from C:\Users\ibaparece\AndroidStudioProjects\flutter-webrtc-demo\android\app\src\main\AndroidManifest.xml
		INJECTED from C:\Users\ibaparece\AndroidStudioProjects\flutter-webrtc-demo\android\app\src\main\AndroidManifest.xml
